^C:\USERS\WINDOWS 8.1\DOCUMENTS\VISUAL STUDIO 2010\PROJECTS\FIRSTTASK\FIRSTTASK\ADDITION.CPP
C:\USERS\WINDOWS 8.1\DOCUMENTS\VISUAL STUDIO 2010\PROJECTS\FIRSTTASK\FIRSTTASK\DEBUG\ADDITION.OBJ
C:\USERS\WINDOWS 8.1\DOCUMENTS\VISUAL STUDIO 2010\PROJECTS\FIRSTTASK\FIRSTTASK\DEBUG\VC100.PDB
